Covariate-adjusted pseudotime analysis of Shalek et al. (2014) using PhenoPath
…
interaction_effect_size The effect size of the interaction (\(\beta\) from the statistical model)

significant Boolean for whether the interaction effect is significantly different from 0

chi The precision of the ARD prior on \(\beta\)

pathway_loading The pathway loading \(\lambda\), showing the overall effect for each gene marginalised over the covariate

Lets have a look at this for our dataset. Well swap out the ensembl gene IDs with the MGI symbols to make things a little easier to read:

ints <- interactions(fit)
ints$feature <- fData(sce_hvg)$mgi_symbol
ints[,1:3]

## # A tibble: 7,500 x 3
##    feature   covariate interaction_effect_size
##      <chr>       <chr>                   <dbl>
##  1   Gnai3 covariate_1             -0.21224978
##  2    Narf covariate_1              0.18136389
##  3    Cav2 covariate_1             -0.40507337
##  4   Scmh1 covariate_1              0.07543741
##  5    Xpo6 covariate_1             -0.28933790
##  6    Tfe3 covariate_1             -0.32925474
##  7   Gna12 covariate_1             -0.11623157
##  8    Dlat covariate_1             -0.21062996
##  9    Sdhd covariate_1             -0.23311038
## 10   Ccnd2 covariate_1              0.38030757
## # ... with 7,490 more rows

ints[,4:6]

## # A tibble: 7,500 x 3
##    significant_interaction       chi pathway_loading
##                      <lgl>     <dbl>           <dbl>
##  1                   FALSE 10.121751      -0.1130153
##  2                   FALSE 10.184667      -0.8729432
##  3                   FALSE  9.570431       0.1637015
##  4                   FALSE 10.319062       0.6004500
##  5                   FALSE  9.940135       0.9765032
##  6                   FALSE  9.823192      -0.1777573
##  7                   FALSE 10.286568      -1.1952394
##  8                   FALSE 10.132019      -1.1192479
##  9                   FALSE 10.085082      -1.0163325
## 10                   FALSE  9.702828       1.7546201
## # ... with 7,490 more rows
…
